-------------------------------------------------------------------------------
Test set: tn.esprit.projectmanagement.service.DemoTest
-------------------------------------------------------------------------------
Tests run: 1, Failures: 0, Errors: 0, Skipped: 0, Time elapsed: 0.04 sec
