tn\esprit\projectmanagement\service\BeansConfiguration.class
tn\esprit\projectmanagement\service\DemoAnnotation.class
tn\esprit\projectmanagement\service\DemoDynamic.class
tn\esprit\projectmanagement\config\BeansConfiguration.class
tn\esprit\projectmanagement\service\ITeamMember.class
tn\esprit\projectmanagement\service\DemoClass.class
tn\esprit\projectmanagement\service\TeamMember2.class
tn\esprit\projectmanagement\service\TeamMember.class
tn\esprit\projectmanagement\service\Demo.class
tn\esprit\projectmanagement\config\BeansConfigurationAnnotation.class
tn\esprit\projectmanagement\service\ScrumTeamAnnotation.class
tn\esprit\projectmanagement\service\TeamMemberAnnotation.class
tn\esprit\projectmanagement\service\ScrumTeam.class
