E:\Esprit\3ALINFO3\Architecture_des_SI_II\S4\tp2-injection-dynamic\DependencyInjectionWithThreeMethod\src\test\java\tn\esprit\projectmanagement\service\DemoTest.java
E:\Esprit\3ALINFO3\Architecture_des_SI_II\S4\tp2-injection-dynamic\DependencyInjectionWithThreeMethod\src\test\java\tn\esprit\projectmanagement\service\DemoAnnotationTest.java
E:\Esprit\3ALINFO3\Architecture_des_SI_II\S4\tp2-injection-dynamic\DependencyInjectionWithThreeMethod\src\test\java\tn\esprit\projectmanagement\service\DemoClassTest.java
